[
  {
    "id": 1,
    "title": "Red flowers in fields. Watercolor",
    "price": 5,
    "image": "./IMAGES/image_poppy.jpg",
    "article": "000001",
    "color": "blue"
  },
  {
    "id": 2,
    "title": "Ukrainian field of sunflowers. Watercolor",
    "price": 4,
    "image": "./IMAGES/image_sunflowers.jpg",
    "article": "000002",
    "color": "red"
  },
  {
    "id": 3,
    "title": "Lake water and lilies. Pastel",
    "price": 12,
    "image": "./IMAGES/image_lake.jpg",
    "article": "000003",
    "color": "yellow"
  },
  {
    "id": 4,
    "title": "Tree in spring. Oil",
    "price": 13,
    "image": "./IMAGES/image_castaines.jpg",
    "article": "000004",
    "color": "green"
  },
  {
    "id": 5,
    "title": "Bunch of tulips in March. Watercolor",
    "price": 11,
    "image": "./IMAGES/image_tulipsbunch.jpg",
    "article": "000005",
    "color": "violet"
  },
  {
    "id": 6,
    "title": "Sunflowers in Ukrainian fields. Dark motive. Watercolor",
    "price": 2,
    "image": "./IMAGES/image_sunflower_eskiz_dark.jpg",
    "article": "000009",
    "color": "beige"
  },
  {
    "id": 7,
    "title": "Berries in September. Watercolor",
    "price": 2,
    "image": "./IMAGES/image_berries.jpg",
    "article": "000008",
    "color": "orange"
  },
  {
    "id": 8,
    "title": "Landscape of Neris river in November. Pastel",
    "price": 4,
    "image": "./IMAGES/image_nerislandscape.jpg",
    "article": "000007",
    "color": "grey"
  },
  {
    "id": 9,
    "title": "Bunch of Poppies. Water color",
    "price": 7,
    "image": "./IMAGES/image_poppybunch.jpg",
    "article": "000006",
    "color": "brown"
  },
  {
    "id": 10,
    "title": "Sunflowers in Ukrainian fileds. Light motive. Watercolor ",
    "price": 2,
    "image": "./IMAGES/image_sunflower_eskiz_light.jpg",
    "article": "000010",
    "color": "white"
  }
]